…
How can we use this now?

Let’s start with a for loop

``` r
output = vector("list", length = 100)

for (i in 1:100) {
  output[[i]] = sim_mean_sd(n = 30)
}

bind_rows(output)
```

    ## # A tibble: 100 × 2
    ##    mu_hat sigma_hat
    ##     <dbl>     <dbl>
    ##  1   1.62      3.29
    ##  2   2.56      3.11
    ##  3   1.43      2.43
    ##  4   2.19      2.79
    ##  5   2.28      2.63
    ##  6   2.90      2.79
    ##  7   3.43      3.20
    ##  8   1.98      3.44
    ##  9   1.63      3.44
    ## 10   1.47      3.22
    ## # … with 90 more rows
…
